{
    "payload": {
      "google": {
        "expectUserResponse": true,
        "richResponse": {
          "items": [
            {
              "simpleResponse": {
                "textToSpeech": "Welcome to Rocket Tracker"
              }
            },
            {
              "basicCard": {
                "title": "Rocket Tracker",
                "formattedText": "Welcome to Rocket Tracker! Tap the Next Launch button below to get started.",
                "image": {
                    "url": "https://cms.qz.com/wp-content/uploads/2018/03/spacex-falcon-heavy-space-internet-satellite-elon-musk.jpg",
                    "accessibilityText": "Rocket Tracker Home"
                },
                "imageDisplayOptions": "CROPPED"
              }
            }
          ],
          "suggestions" : [
              {
                  "title": "Next Rocket Launch"
              }
          ]
        }
      }
    }
  }