{
    "count": 16,
    "offset": 0,
    "total": 16,
    "types": [
        {
            "changed": "2017-02-21 00:00:00",
            "description": "",
            "id": 1,
            "name": "Earth Science"
        },
        {
            "changed": "2017-02-21 00:00:00",
            "description": "",
            "id": 2,
            "name": "Planetary Science"
        },
        {
            "changed": "2017-02-21 00:00:00",
            "description": "",
            "id": 3,
            "name": "Astrophysics"
        },
        {
            "changed": "2017-02-21 00:00:00",
            "description": "",
            "id": 4,
            "name": "Heliophysics"
        },
        {
            "changed": "2017-02-21 00:00:00",
            "description": "",
            "id": 5,
            "name": "Human Exploration"
        },
        {
            "changed": "2017-02-21 00:00:00",
            "description": "",
            "id": 6,
            "name": "Robotic Exploration"
        },
        {
            "changed": "2017-02-21 00:00:00",
            "description": "",
            "id": 7,
            "name": "Government/Top Secret"
        },
        {
            "changed": "2017-02-21 00:00:00",
            "description": "",
            "id": 8,
            "name": "Tourism"
        },
        {
            "changed": "2017-02-21 00:00:00",
            "description": "",
            "id": 9,
            "name": "Unknown"
        },
        {
            "changed": "2017-02-21 00:00:00",
            "description": "",
            "id": 10,
            "name": "Communications"
        },
        {
            "changed": "2017-02-21 00:00:00",
            "description": "",
            "id": 11,
            "name": "Resupply"
        },
        {
            "changed": "2017-02-21 00:00:00",
            "description": "",
            "id": 12,
            "name": "Suborbital"
        },
        {
            "changed": "2017-02-21 00:00:00",
            "description": "",
            "id": 13,
            "name": "Test Flight"
        },
        {
            "changed": "2017-02-21 00:00:00",
            "description": "",
            "id": 14,
            "name": "Dedicated Rideshare"
        },
        {
            "changed": "2017-02-21 00:00:00",
            "description": "",
            "id": 15,
            "name": "Navigation"
        },
        {
            "changed": "2018-11-27 17:44:17",
            "description": "",
            "id": 16,
            "name": "Microgravity Research"
        }
    ]
}